[{
	"name": "夜夜痴缠",
	"artist": "麦洁文",
	"url": "https://ww2.dmit.ml/music/麦洁文 - 夜夜痴缠.mp3",
	"cover": "http://static.blinkfox.com/music-cover1.png"
}, {
	"name": "童话",
	"artist": "光良",
	"url": "https://ww2.dmit.ml/music/光良 - 童话.mp3",
	"cover": "http://static.blinkfox.com/music-cover2.png"
}, {
	"name": "Mine Mine",
	"artist": "周杰伦",
	"url": "https://ww2.dmit.ml/music/周杰伦 - Mine Mine.mp3",
	"cover": "http://static.blinkfox.com/music-cover2.png"
}, {
	"name": "遇上你是我的缘",
	"artist": "央金兰泽",
	"url": "https://ww2.dmit.ml/music/央金兰泽 - 遇上你是我的缘.mp3",
	"cover": "http://static.blinkfox.com/music-cover2.png"
}, {
	"name": "嫦娥",
	"artist": "李玉刚",
	"url": "https://ww2.dmit.ml/music/李玉刚 - 嫦娥 (Live).mp3",
	"cover": "http://static.blinkfox.com/music-cover2.png"
}, {
	"name": "浣纱曲",
	"artist": "李玉刚",
	"url": "https://ww2.dmit.ml/music/李玉刚 - 浣纱曲.mp3",
	"cover": "http://static.blinkfox.com/music-cover2.png"
}, {
	"name": "葬心",
	"artist": "李玉刚",
	"url": "https://ww2.dmit.ml/music/李玉刚 - 葬心.mp3",
	"cover": "http://static.blinkfox.com/music-cover2.png"
}, {
	"name": "梦里是谁",
	"artist": "王馨平",
	"url": "https://ww2.dmit.ml/music/王馨平 - 梦里是谁.mp3",
	"cover": "http://static.blinkfox.com/music-cover2.png"
}, {
	"name": "星月神话",
	"artist": "金莎",
	"url": "https://ww2.dmit.ml/music/金莎 - 星月神话.mp3",
	"cover": "http://static.blinkfox.com/music-cover2.png"
}, {
	"name": "泪的告白",
	"artist": "吉田亚纪子 ",
	"url": "https://ww2.dmit.ml/music/吉田亚纪子 - 泪的告白.mp3",
	"cover": "http://static.blinkfox.com/music-cover3.png"
}]